Interface to the Biodiversity Heritage Library • rOpenSci: rbhl
…
bhl_publicationsearch('cocos island costa rica birds')
#> # A tibble: 2 x 17
#>   BHLType FoundIn Volume Authors PartUrl PartID Genre Title ContainerTitle
#>   <chr>   <chr>   <chr>  <list>  <chr>   <chr>  <chr> <chr> <chr>         
#> 1 Part    Metada… 2      <df[,1… https:… 69838  Arti… Fiel… Proceedings o…
#> 2 Item    Metada… <NA>   <df[,1… <NA>    <NA>   Book  The … <NA>          
#> # … with 8 more variables: Series <chr>, Date <chr>, PageRange <chr>,
#> #   ItemID <chr>, TitleID <chr>, ExternalUrl <chr>, ItemUrl <chr>,
#> #   TitleUrl <chr>

Get languages

bhl_getlanguages()
#> # A tibble: 80 x 2
#>    LanguageCode LanguageName        
#>    <chr>        <chr>               
#>  1 AFR          Afrikaans           
#>  2 ARA          Arabic              
#>  3 ARC          Aramaic             
#>  4 MAP          Austronesian (Other)
#>  5 BUL          Bulgarian           
#>  6 BUR          Burmese             
#>  7 CAR          Carib               
#>  8 CAT          Catalan             
#>  9 CEL          Celtic (Other)      
#> 10 CHI          Chinese             
#> # … with 70 more rows
…
