Introduction to rbhl • rOpenSci: rbhl
…
bhl_publicationsearch('cocos island costa rica birds')

#> # A tibble: 2 x 17
#>   BHLType FoundIn  Volume Authors   PartUrl       PartID Genre  Title            ContainerTitle       Series Date  PageRange ItemID TitleID ExternalUrl   ItemUrl      TitleUrl      
#>   <chr>   <chr>    <chr>  <list>    <chr>         <chr>  <chr>  <chr>            <chr>                <chr>  <chr> <chr>     <chr>  <chr>   <chr>         <chr>        <chr>         
#> 1 Part    Metadata 2      <df[,1] … https://www.… 69838  Artic… Field notes on … Proceedings of the … 4      1919  189--258  <NA>   <NA>    <NA>          <NA>         <NA>          
#> 2 Item    Metadata <NA>   <df[,1] … <NA>          <NA>   Book   The birds of Co… <NA>                 <NA>   <NA>  <NA>      167380 89765   http://hdl.h… https://www… https://www.b…

Get languages

This function gets a list of languages in which materials in BHL have been written.

bhl_getlanguages()

#> # A tibble: 75 x 2
#>    LanguageCode LanguageName        
#>    <chr>        <chr>               
#>  1 AFR          Afrikaans           
#>  2 ARA          Arabic              
#>  3 ARC          Aramaic             
#>  4 MAP          Austronesian (Other)
#>  5 BUL          Bulgarian           
#>  6 BUR          Burmese             
#>  7 CAR          Carib               
#>  8 CAT          Catalan             
#>  9 CEL          Celtic (Other)      
#> 10 CHI          Chinese             
#> # … with 65 more rows
…
